…
Next, we’ll import the data using `read_csv` and then change the
character variables (other than `subject`) into factors.

``` r
dat <- read_csv("impute_example.csv") %>%
    mutate_if(is.character, funs(as.factor(.))) %>%
    mutate(subject = as.character(subject))

dat
```

    # A tibble: 45 x 4
       subject treatment ses    satisfaction
       <chr>   <fct>     <fct>         <int>
     1 A01     A         Middle           61
     2 A02     C         Middle           47
     3 A03     B         High             53
     4 A04     B         Middle           42
     5 A05     B         Low              55
     6 A06     B         Middle           67
     7 A07     A         High             55
     8 A08     A         Middle           53
     9 A09     C         High             43
    10 A10     A         Low              25
    # ... with 35 more rows
…
